Calibration/WASC0003.CSV

ModelName,DS-5622A
FileVersion,6
Acquisition Time,2026/07/16 12:11:19
Time/div(second),2E-03
Delay(second),-6.00E-03
Delta(second),20E-06
Acquisition Mode,Average,1024
Trigger Address,200
CH1 Display,On
CH2 Display,On
CH1 Volt/div,2.00E-03
CH2 Volt/div,1.00E+00
CH1 Offset,7.00E-03
CH2 Offset,-3.00E+00
CH1 Coupling,DC50
CH2 Coupling,DC50
CH1 Bandwidth,Full
CH2 Bandwidth,Full
Points,1001
Ch1 V,Ch2 V
-1.101E-04,-7.324E-03,,
-1.042E-04,-6.958E-03,,
-1.193E-04,-6.958E-03,,
-1.032E-04,-6.469E-03,,
-1.196E-04,-7.690E-03,,
-1.101E-04,-7.202E-03,,
-1.203E-04,-6.591E-03,,
-1.132E-04,-6.835E-03,,
-1.130E-04,-7.934E-03,,
-1.066E-04,-6.958E-03,,
-1.169E-04,-6.958E-03,,
-1.064E-04,-7.446E-03,,
-1.166E-04,-7.812E-03,,
-1.069E-04,-7.324E-03,,
-1.174E-04,-6.469E-03,,
-1.096E-04,-7.690E-03,,
-1.098E-04,-7.812E-03,,
-1.064E-04,-6.713E-03,,
-1.103E-04,-6.713E-03,,
-1.064E-04,-7.324E-03,,
-1.101E-04,-6.713E-03,,
-1.079E-04,-6.958E-03,,
-1.130E-04,-7.324E-03,,
-1.137E-04,-6.958E-03,,
-1.142E-04,-7.568E-03,,
-1.096E-04,-7.202E-03,,
-1.123E-04,-7.202E-03,,
-1.127E-04,-7.202E-03,,
-1.091E-04,-6.835E-03,,
-1.083E-04,-7.324E-03,,
-1.140E-04,-7.568E-03,,
-1.152E-04,-6.835E-03,,
-1.062E-04,-7.324E-03,,
-1.127E-04,-7.324E-03,,
-1.083E-04,-7.324E-03,,
-1.130E-04,-8.300E-03,,
-1.123E-04,-7.080E-03,,
-1.132E-04,-7.690E-03,,
-1.110E-04,-7.080E-03,,
-1.125E-04,-7.934E-03,,
-1.127E-04,-7.568E-03,,
-1.130E-04,-7.080E-03,,
-1.137E-04,-7.324E-03,,
-1.191E-04,-7.080E-03,,
-1.083E-04,-7.202E-03,,
-1.164E-04,-7.934E-03,,
-1.064E-04,-7.202E-03,,
-1.228E-04,-7.568E-03,,
-1.137E-04,-7.324E-03,,
-1.220E-04,-7.568E-03,,
-1.118E-04,-6.835E-03,,
-1.157E-04,-7.080E-03,,
-1.030E-04,-7.080E-03,,
-1.181E-04,-8.056E-03,,
-1.147E-04,-8.300E-03,,
-1.179E-04,-6.591E-03,,
-1.113E-04,-8.056E-03,,
-1.188E-04,-7.568E-03,,
-1.069E-04,-7.446E-03,,
-1.149E-04,-7.446E-03,,
-1.147E-04,-6.713E-03,,
-1.198E-04,-7.934E-03,,
-1.123E-04,-6.958E-03,,
-1.108E-04,-7.324E-03,,
-1.184E-04,-8.544E-03,,
-1.220E-04,-7.812E-03,,
-1.118E-04,-6.469E-03,,
-1.154E-04,-7.080E-03,,
-1.086E-04,-7.202E-03,,
-1.174E-04,-7.690E-03,,
-1.130E-04,-7.690E-03,,
-1.164E-04,-7.080E-03,,
-1.159E-04,-7.568E-03,,
-1.223E-04,-6.958E-03,,
-1.162E-04,-7.568E-03,,
-1.120E-04,-7.324E-03,,
-1.157E-04,-7.080E-03,,
-1.074E-04,-8.056E-03,,
-1.147E-04,-6.958E-03,,
-1.174E-04,-7.324E-03,,
-1.193E-04,-7.568E-03,,
-1.127E-04,-6.591E-03,,
-1.127E-04,-6.713E-03,,
-1.103E-04,-6.713E-03,,
-1.208E-04,-6.958E-03,,
-1.083E-04,-6.469E-03,,
-1.230E-04,-6.347E-03,,
-1.096E-04,-7.324E-03,,
-1.230E-04,-7.202E-03,,
-1.149E-04,-6.713E-03,,
-1.188E-04,-7.080E-03,,
-1.184E-04,-7.202E-03,,
-1.196E-04,-6.835E-03,,
-1.071E-04,-7.202E-03,,
-1.118E-04,-7.446E-03,,
-1.159E-04,-6.835E-03,,
-1.157E-04,-8.056E-03,,
-1.176E-04,-6.958E-03,,
-1.186E-04,-7.690E-03,,
-1.203E-04,-7.324E-03,,
-1.179E-04,-8.056E-03,,
-1.179E-04,-7.446E-03,,
-1.120E-04,-7.446E-03,,
-1.130E-04,-8.056E-03,,
-1.206E-04,-7.202E-03,,
-1.157E-04,-7.934E-03,,
-1.108E-04,-7.690E-03,,
-1.147E-04,-7.568E-03,,
-1.176E-04,-7.812E-03,,
-1.120E-04,-7.812E-03,,
-1.035E-04,-6.469E-03,,
-1.218E-04,-7.446E-03,,
-1.103E-04,-7.080E-03,,
-1.083E-04,-7.568E-03,,
-1.066E-04,-6.713E-03,,
-1.103E-04,-7.080E-03,,
-1.086E-04,-6.958E-03,,
-1.096E-04,-7.202E-03,,
-1.093E-04,-7.690E-03,,
-1.076E-04,-6.713E-03,,
-1.130E-04,-7.202E-03,,
-1.210E-04,-7.202E-03,,
-1.171E-04,-7.324E-03,,
-1.142E-04,-6.835E-03,,
-1.098E-04,-7.568E-03,,
-1.201E-04,-7.446E-03,,
-1.166E-04,-8.178E-03,,
-1.164E-04,-8.300E-03,,
-1.140E-04,-7.324E-03,,
-1.196E-04,-7.324E-03,,
-1.135E-04,-7.202E-03,,
-1.076E-04,-7.812E-03,,
-1.096E-04,-7.324E-03,,
-1.120E-04,-6.591E-03,,
-1.115E-04,-7.202E-03,,
-1.169E-04,-6.469E-03,,
-1.130E-04,-7.568E-03,,
-1.137E-04,-7.202E-03,,
-1.125E-04,-7.446E-03,,
-1.103E-04,-7.202E-03,,
-1.159E-04,-7.446E-03,,
-1.110E-04,-7.690E-03,,
-1.147E-04,-7.812E-03,,
-1.062E-04,-7.812E-03,,
-1.096E-04,-6.958E-03,,
-1.110E-04,-6.958E-03,,
-1.152E-04,-7.202E-03,,
-1.193E-04,-6.958E-03,,
-1.049E-04,-6.469E-03,,
-1.103E-04,-7.080E-03,,
-1.054E-04,-6.347E-03,,
-1.142E-04,-7.202E-03,,
-1.098E-04,-6.713E-03,,
-1.074E-04,-7.934E-03,,
-1.059E-04,-7.080E-03,,
-1.105E-04,-7.202E-03,,
-1.091E-04,-6.713E-03,,
-1.054E-04,-6.958E-03,,
-1.149E-04,-7.324E-03,,
-1.110E-04,-7.324E-03,,
-1.118E-04,-6.591E-03,,
-1.152E-04,-7.690E-03,,
-1.154E-04,-6.469E-03,,
-1.157E-04,-7.202E-03,,
-1.162E-04,-7.324E-03,,
-1.088E-04,-7.080E-03,,
-1.101E-04,-7.446E-03,,
-1.057E-04,-7.934E-03,,
-1.193E-04,-7.202E-03,,
-1.030E-04,-6.835E-03,,
-1.108E-04,-7.080E-03,,
-1.105E-04,-7.568E-03,,
-1.169E-04,-7.080E-03,,
-1.132E-04,-6.958E-03,,
-1.098E-04,-7.934E-03,,
-1.162E-04,-7.202E-03,,
-1.123E-04,-7.568E-03,,
-1.130E-04,-7.812E-03,,
-1.052E-04,-7.568E-03,,
-1.132E-04,-6.469E-03,,
-1.125E-04,-6.958E-03,,
-1.154E-04,-6.591E-03,,
-1.098E-04,-6.958E-03,,
-1.154E-04,-7.202E-03,,
-1.108E-04,-7.690E-03,,
-1.130E-04,-7.690E-03,,
-1.127E-04,-7.568E-03,,
-1.115E-04,-7.202E-03,,
-1.105E-04,-7.446E-03,,
-1.169E-04,-7.690E-03,,
-1.176E-04,-7.690E-03,,
-1.123E-04,-7.690E-03,,
-1.127E-04,-7.446E-03,,
-1.123E-04,-8.789E-03,,
-1.113E-04,-9.765E-03,,
-1.115E-04,-1.013E-02,,
-1.174E-04,-9.643E-03,,
-1.198E-04,-8.422E-03,,
-1.184E-04,-7.568E-03,,
-3.732E-03,1.885E+00,,
-1.435E-03,1.318E-02,,
-1.334E-03,-6.835E-03,,
-1.331E-03,-7.080E-03,,
-1.369E-03,-6.958E-03,,
-1.293E-03,-7.934E-03,,
-1.297E-03,-7.324E-03,,
-1.277E-03,-7.446E-03,,
-1.330E-03,-6.958E-03,,
-1.268E-03,-7.202E-03,,
-1.286E-03,-7.690E-03,,
-1.241E-03,-7.446E-03,,
-1.186E-03,-6.958E-03,,
-1.306E-03,-7.324E-03,,
-1.249E-03,-7.568E-03,,
-1.199E-03,-7.812E-03,,
-1.225E-03,-6.958E-03,,
-1.181E-03,-6.835E-03,,
-1.218E-03,-6.835E-03,,
-1.189E-03,-7.446E-03,,
-1.121E-03,-7.690E-03,,
-1.147E-03,-7.446E-03,,
-1.125E-03,-6.591E-03,,
-1.165E-03,-7.324E-03,,
-1.119E-03,-7.812E-03,,
-1.113E-03,-7.446E-03,,
-1.119E-03,-7.446E-03,,
-1.122E-03,-7.934E-03,,
-1.070E-03,-7.690E-03,,
-1.068E-03,-7.934E-03,,
-1.088E-03,-6.958E-03,,
-1.103E-03,-7.812E-03,,
-1.019E-03,-7.568E-03,,
-1.081E-03,-8.178E-03,,
-1.035E-03,-7.690E-03,,
-1.039E-03,-7.202E-03,,
-1.074E-03,-7.568E-03,,
-9.885E-04,-7.690E-03,,
-9.934E-04,-7.324E-03,,
-9.907E-04,-7.202E-03,,
-9.804E-04,-6.835E-03,,
-9.470E-04,-7.934E-03,,
-9.604E-04,-7.568E-03,,
-9.765E-04,-7.690E-03,,
-9.396E-04,-7.690E-03,,
-9.384E-04,-7.080E-03,,
-9.057E-04,-6.958E-03,,
-9.458E-04,-7.568E-03,,
-9.843E-04,-7.934E-03,,
-8.664E-04,-7.446E-03,,
-9.084E-04,-7.934E-03,,
-8.928E-04,-6.958E-03,,
-8.796E-04,-7.568E-03,,
-9.252E-04,-7.324E-03,,
-9.050E-04,-7.690E-03,,
-8.903E-04,-6.958E-03,,
-8.862E-04,-7.446E-03,,
-8.845E-04,-7.568E-03,,
-9.230E-04,-6.958E-03,,
-8.957E-04,-8.178E-03,,
-8.486E-04,-7.202E-03,,
-8.186E-04,-6.958E-03,,
-8.005E-04,-7.812E-03,,
-8.330E-04,-7.934E-03,,
-7.924E-04,-8.056E-03,,
-8.002E-04,-7.690E-03,,
-7.934E-04,-7.446E-03,,
-8.183E-04,-7.446E-03,,
-7.883E-04,-7.812E-03,,
-7.861E-04,-7.446E-03,,
-8.041E-04,-7.812E-03,,
-7.995E-04,-6.958E-03,,
-7.753E-04,-7.446E-03,,
-7.346E-04,-7.446E-03,,
-7.666E-04,-7.202E-03,,
-7.468E-04,-7.568E-03,,
-7.871E-04,-8.056E-03,,
-7.939E-04,-6.835E-03,,
-7.231E-04,-7.568E-03,,
-7.495E-04,-7.080E-03,,
-6.967E-04,-7.324E-03,,
-7.585E-04,-7.324E-03,,
-6.889E-04,-7.080E-03,,
-7.504E-04,-7.812E-03,,
-7.136E-04,-7.324E-03,,
-6.730E-04,-7.934E-03,,
-6.640E-04,-7.324E-03,,
-6.767E-04,-7.934E-03,,
-6.784E-04,-7.080E-03,,
-6.799E-04,-7.202E-03,,
-6.904E-04,-7.934E-03,,
-6.811E-04,-6.835E-03,,
-6.469E-04,-7.568E-03,,
-6.457E-04,-7.568E-03,,
-6.081E-04,-6.958E-03,,
-6.164E-04,-8.056E-03,,
-6.359E-04,-7.202E-03,,
-6.892E-04,-6.591E-03,,
-6.313E-04,-7.446E-03,,
-6.804E-04,-7.690E-03,,
-6.115E-04,-6.713E-03,,
-6.230E-04,-7.568E-03,,
-6.184E-04,-7.202E-03,,
-6.555E-04,-7.202E-03,,
-6.279E-04,-7.690E-03,,
-6.145E-04,-6.958E-03,,
-5.678E-04,-6.713E-03,,
-5.532E-04,-6.713E-03,,
-5.986E-04,-6.713E-03,,
-5.627E-04,-6.835E-03,,
-5.766E-04,-6.835E-03,,
-5.522E-04,-7.324E-03,,
-6.159E-04,-8.544E-03,,
-5.874E-04,-7.080E-03,,
-5.815E-04,-8.178E-03,,
-5.576E-04,-7.080E-03,,
-5.307E-04,-7.690E-03,,
-5.683E-04,-7.324E-03,,
-5.568E-04,-7.080E-03,,
-5.366E-04,-7.202E-03,,
-5.603E-04,-7.446E-03,,
-5.434E-04,-7.568E-03,,
-5.615E-04,-7.324E-03,,
-4.985E-04,-7.202E-03,,
-5.583E-04,-7.690E-03,,
-5.231E-04,-7.812E-03,,
-5.180E-04,-7.202E-03,,
-4.760E-04,-7.812E-03,,
-5.041E-04,-8.422E-03,,
-5.190E-04,-7.080E-03,,
-5.163E-04,-6.835E-03,,
-5.131E-04,-6.347E-03,,
-5.241E-04,-6.835E-03,,
-4.675E-04,-7.568E-03,,
-4.792E-04,-7.202E-03,,
-4.982E-04,-7.446E-03,,
-4.797E-04,-7.324E-03,,
-5.043E-04,-7.690E-03,,
-4.482E-04,-6.713E-03,,
-4.714E-04,-6.713E-03,,
-4.980E-04,-7.934E-03,,
-4.550E-04,-7.812E-03,,
-4.865E-04,-7.080E-03,,
-4.462E-04,-8.178E-03,,
-4.677E-04,-6.958E-03,,
-4.589E-04,-8.056E-03,,
-4.550E-04,-8.300E-03,,
-4.909E-04,-6.835E-03,,
-4.443E-04,-7.202E-03,,
-4.606E-04,-6.591E-03,,
-4.282E-04,-7.080E-03,,
-4.504E-04,-7.446E-03,,
-4.526E-04,-7.812E-03,,
-4.455E-04,-8.056E-03,,
-4.650E-04,-7.934E-03,,
-4.558E-04,-7.568E-03,,
-4.399E-04,-6.713E-03,,
-4.211E-04,-6.713E-03,,
-4.494E-04,-8.056E-03,,
-4.079E-04,-6.713E-03,,
-3.950E-04,-7.202E-03,,
-4.174E-04,-6.591E-03,,
-4.108E-04,-7.446E-03,,
-4.018E-04,-7.202E-03,,
-3.981E-04,-6.958E-03,,
-4.282E-04,-7.934E-03,,
-4.125E-04,-7.446E-03,,
-3.999E-04,-7.080E-03,,
-3.901E-04,-6.835E-03,,
-3.930E-04,-7.324E-03,,
-3.911E-04,-7.324E-03,,
-3.818E-04,-7.812E-03,,
-3.884E-04,-7.324E-03,,
-3.818E-04,-6.835E-03,,
-3.664E-04,-6.958E-03,,
-3.627E-04,-6.469E-03,,
-3.745E-04,-6.958E-03,,
-3.889E-04,-7.080E-03,,
-3.774E-04,-7.324E-03,,
-3.957E-04,-7.324E-03,,
-3.537E-04,-7.080E-03,,
-3.532E-04,-7.324E-03,,
-3.627E-04,-7.202E-03,,
-3.576E-04,-7.568E-03,,
-3.471E-04,-7.446E-03,,
-3.645E-04,-7.568E-03,,
-3.601E-04,-7.690E-03,,
-3.525E-04,-7.080E-03,,
-3.496E-04,-7.080E-03,,
-3.298E-04,-7.812E-03,,
-3.422E-04,-6.713E-03,,
-3.405E-04,-6.958E-03,,
-3.718E-04,-6.591E-03,,
-3.369E-04,-7.080E-03,,
-3.498E-04,-8.178E-03,,
-3.254E-04,-7.324E-03,,
-3.288E-04,-8.178E-03,,
-3.444E-04,-6.835E-03,,
-3.305E-04,-7.324E-03,,
-3.352E-04,-6.835E-03,,
-3.212E-04,-7.446E-03,,
-3.271E-04,-7.568E-03,,
-3.081E-04,-7.446E-03,,
-3.144E-04,-7.080E-03,,
-3.366E-04,-8.056E-03,,
-3.276E-04,-7.568E-03,,
-3.251E-04,-7.446E-03,,
-3.115E-04,-7.568E-03,,
-3.137E-04,-7.568E-03,,
-3.005E-04,-7.568E-03,,
-3.027E-04,-8.178E-03,,
-3.059E-04,-8.300E-03,,
-3.352E-04,-7.568E-03,,
-2.983E-04,-7.812E-03,,
-3.093E-04,-7.080E-03,,
-3.049E-04,-7.934E-03,,
-3.085E-04,-7.202E-03,,
-3.127E-04,-7.080E-03,,
-3.000E-04,-6.469E-03,,
-2.822E-04,-7.446E-03,,
-3.034E-04,-7.690E-03,,
-3.024E-04,-7.080E-03,,
-2.834E-04,-7.690E-03,,
-3.078E-04,-6.469E-03,,
-2.868E-04,-7.202E-03,,
-2.978E-04,-6.958E-03,,
-2.885E-04,-7.080E-03,,
-2.800E-04,-7.690E-03,,
-2.810E-04,-7.202E-03,,
-2.758E-04,-7.202E-03,,
-2.773E-04,-6.713E-03,,
-2.832E-04,-7.080E-03,,
-2.619E-04,-7.446E-03,,
-2.814E-04,-7.568E-03,,
-2.829E-04,-7.568E-03,,
-2.731E-04,-7.568E-03,,
-2.675E-04,-6.835E-03,,
-2.709E-04,-7.568E-03,,
-2.646E-04,-7.324E-03,,
-2.578E-04,-7.690E-03,,
-2.670E-04,-7.324E-03,,
-2.451E-04,-6.958E-03,,
-2.485E-04,-7.446E-03,,
-2.687E-04,-7.080E-03,,
-2.700E-04,-6.347E-03,,
-2.326E-04,-7.568E-03,,
-2.546E-04,-7.690E-03,,
-2.648E-04,-6.713E-03,,
-2.551E-04,-8.056E-03,,
-2.626E-04,-6.958E-03,,
-2.434E-04,-7.446E-03,,
-2.519E-04,-7.690E-03,,
-2.319E-04,-7.080E-03,,
-2.512E-04,-6.835E-03,,
-2.519E-04,-7.690E-03,,
-2.392E-04,-6.835E-03,,
-2.280E-04,-7.202E-03,,
-2.377E-04,-6.713E-03,,
-2.402E-04,-6.835E-03,,
-2.307E-04,-6.958E-03,,
-2.351E-04,-7.446E-03,,
-2.514E-04,-7.446E-03,,
-2.507E-04,-7.568E-03,,
-2.250E-04,-7.812E-03,,
-2.253E-04,-6.958E-03,,
-2.373E-04,-7.446E-03,,
-2.233E-04,-7.080E-03,,
-2.385E-04,-7.812E-03,,
-2.365E-04,-7.080E-03,,
-2.221E-04,-7.568E-03,,
-2.055E-04,-7.446E-03,,
-2.182E-04,-7.202E-03,,
-2.321E-04,-7.446E-03,,
-2.180E-04,-6.713E-03,,
-2.224E-04,-7.202E-03,,
-2.126E-04,-7.080E-03,,
-2.187E-04,-7.690E-03,,
-2.241E-04,-7.812E-03,,
-2.241E-04,-7.324E-03,,
-2.211E-04,-6.835E-03,,
-2.231E-04,-6.469E-03,,
-2.053E-04,-7.568E-03,,
-2.082E-04,-8.300E-03,,
-2.160E-04,-7.324E-03,,
-2.158E-04,-7.080E-03,,
-2.209E-04,-7.324E-03,,
-2.209E-04,-7.080E-03,,
-2.082E-04,-7.202E-03,,
-2.065E-04,-6.347E-03,,
-2.155E-04,-6.835E-03,,
-2.185E-04,-7.690E-03,,
-2.021E-04,-7.202E-03,,
-2.094E-04,-7.324E-03,,
-1.955E-04,-7.690E-03,,
-2.221E-04,-7.080E-03,,
-1.950E-04,-7.568E-03,,
-2.133E-04,-7.446E-03,,
-1.962E-04,-7.080E-03,,
-2.011E-04,-6.713E-03,,
-2.189E-04,-7.080E-03,,
-2.058E-04,-7.446E-03,,
-2.106E-04,-7.202E-03,,
-2.041E-04,-7.690E-03,,
-1.977E-04,-6.835E-03,,
-2.045E-04,-7.934E-03,,
-1.855E-04,-7.934E-03,,
-1.972E-04,-7.446E-03,,
-1.850E-04,-6.958E-03,,
-2.014E-04,-7.568E-03,,
-1.940E-04,-6.835E-03,,
-1.884E-04,-6.469E-03,,
-2.062E-04,-7.934E-03,,
-1.840E-04,-6.835E-03,,
-1.960E-04,-7.812E-03,,
-2.050E-04,-7.080E-03,,
-1.911E-04,-8.056E-03,,
-1.782E-04,-8.300E-03,,
-2.194E-04,-7.202E-03,,
-1.875E-04,-7.324E-03,,
-1.909E-04,-7.812E-03,,
-1.721E-04,-6.958E-03,,
-1.752E-04,-6.958E-03,,
-1.904E-04,-8.056E-03,,
-1.948E-04,-7.202E-03,,
-1.882E-04,-8.178E-03,,
-1.887E-04,-7.446E-03,,
-1.953E-04,-8.422E-03,,
-1.906E-04,-7.446E-03,,
-1.752E-04,-7.812E-03,,
-1.950E-04,-7.080E-03,,
-1.721E-04,-7.446E-03,,
-1.809E-04,-8.056E-03,,
-1.708E-04,-8.178E-03,,
-1.694E-04,-7.324E-03,,
-1.850E-04,-8.178E-03,,
-1.804E-04,-7.446E-03,,
-1.770E-04,-7.080E-03,,
-1.882E-04,-7.446E-03,,
-1.855E-04,-7.446E-03,,
-1.857E-04,-7.080E-03,,
-1.804E-04,-7.690E-03,,
-1.738E-04,-7.202E-03,,
-1.760E-04,-7.446E-03,,
-1.840E-04,-7.446E-03,,
-1.940E-04,-7.934E-03,,
-1.743E-04,-7.812E-03,,
-1.799E-04,-7.446E-03,,
-1.701E-04,-7.324E-03,,
-1.679E-04,-7.080E-03,,
-1.689E-04,-7.446E-03,,
-1.789E-04,-7.690E-03,,
-1.655E-04,-7.446E-03,,
-1.740E-04,-7.324E-03,,
-1.691E-04,-7.812E-03,,
-1.662E-04,-6.713E-03,,
-1.540E-04,-7.568E-03,,
-1.748E-04,-8.178E-03,,
-1.596E-04,-7.202E-03,,
-1.694E-04,-7.690E-03,,
-1.684E-04,-7.202E-03,,
-1.784E-04,-7.324E-03,,
-1.591E-04,-6.958E-03,,
-1.757E-04,-7.324E-03,,
-1.757E-04,-7.690E-03,,
-1.748E-04,-7.080E-03,,
-1.643E-04,-7.324E-03,,
-1.557E-04,-7.812E-03,,
-1.625E-04,-7.568E-03,,
-1.621E-04,-7.812E-03,,
-1.730E-04,-6.958E-03,,
-1.589E-04,-7.324E-03,,
-1.740E-04,-8.178E-03,,
-1.638E-04,-7.202E-03,,
-1.599E-04,-6.958E-03,,
-1.555E-04,-7.690E-03,,
-1.628E-04,-7.324E-03,,
-1.530E-04,-8.056E-03,,
-1.657E-04,-7.080E-03,,
-1.667E-04,-7.324E-03,,
-1.655E-04,-7.934E-03,,
-1.528E-04,-7.324E-03,,
-1.545E-04,-7.446E-03,,
-1.501E-04,-6.591E-03,,
-1.555E-04,-8.178E-03,,
-1.604E-04,-7.812E-03,,
-1.618E-04,-7.202E-03,,
-1.550E-04,-7.812E-03,,
-1.608E-04,-8.178E-03,,
-1.459E-04,-6.713E-03,,
-1.572E-04,-7.202E-03,,
-1.464E-04,-6.835E-03,,
-1.589E-04,-7.080E-03,,
-1.447E-04,-7.568E-03,,
-1.552E-04,-7.812E-03,,
-1.687E-04,-7.080E-03,,
-1.550E-04,-6.469E-03,,
-1.469E-04,-7.690E-03,,
-1.401E-04,-7.568E-03,,
-1.584E-04,-6.958E-03,,
-1.455E-04,-6.713E-03,,
-1.518E-04,-8.789E-03,,
-1.545E-04,-7.080E-03,,
-1.413E-04,-6.713E-03,,
-1.525E-04,-7.202E-03,,
-1.437E-04,-7.324E-03,,
-1.389E-04,-6.958E-03,,
-1.501E-04,-7.812E-03,,
-1.508E-04,-8.300E-03,,
-1.469E-04,-7.934E-03,,
-1.394E-04,-7.324E-03,,
-1.445E-04,-6.591E-03,,
-1.525E-04,-7.568E-03,,
-1.591E-04,-8.056E-03,,
-1.403E-04,-6.347E-03,,
-1.416E-04,-7.080E-03,,
-1.518E-04,-6.958E-03,,
-1.516E-04,-7.812E-03,,
-1.467E-04,-7.202E-03,,
-1.401E-04,-6.835E-03,,
-1.406E-04,-7.446E-03,,
-1.447E-04,-6.713E-03,,
-1.413E-04,-6.225E-03,,
-1.494E-04,-8.056E-03,,
-1.347E-04,-7.690E-03,,
-1.606E-04,-6.958E-03,,
-1.403E-04,-7.324E-03,,
-1.396E-04,-7.324E-03,,
-1.340E-04,-7.568E-03,,
-1.325E-04,-7.812E-03,,
-1.333E-04,-7.446E-03,,
-1.533E-04,-7.690E-03,,
-1.359E-04,-6.469E-03,,
-1.484E-04,-7.568E-03,,
-1.303E-04,-8.056E-03,,
-1.469E-04,-7.812E-03,,
-1.350E-04,-6.835E-03,,
-1.472E-04,-7.202E-03,,
-1.313E-04,-6.958E-03,,
-1.403E-04,-6.591E-03,,
-1.381E-04,-7.324E-03,,
-1.555E-04,-7.446E-03,,
-1.411E-04,-7.324E-03,,
-1.318E-04,-7.446E-03,,
-1.389E-04,-7.202E-03,,
-1.315E-04,-7.080E-03,,
-1.506E-04,-6.469E-03,,
-1.347E-04,-7.446E-03,,
-1.354E-04,-7.080E-03,,
-1.386E-04,-7.080E-03,,
-1.357E-04,-7.446E-03,,
-1.398E-04,-7.202E-03,,
-1.311E-04,-7.690E-03,,
-1.442E-04,-7.690E-03,,
-1.369E-04,-7.812E-03,,
-1.428E-04,-7.568E-03,,
-1.442E-04,-7.080E-03,,
-1.416E-04,-8.178E-03,,
-1.320E-04,-6.713E-03,,
-1.538E-04,-7.202E-03,,
-1.315E-04,-7.934E-03,,
-1.462E-04,-7.446E-03,,
-1.362E-04,-8.300E-03,,
-1.301E-04,-7.568E-03,,
-1.535E-04,-7.812E-03,,
-1.235E-04,-7.446E-03,,
-1.403E-04,-8.178E-03,,
-1.330E-04,-7.202E-03,,
-1.403E-04,-7.690E-03,,
-1.232E-04,-7.446E-03,,
-1.416E-04,-7.690E-03,,
-1.364E-04,-7.934E-03,,
-1.420E-04,-7.202E-03,,
-1.347E-04,-7.202E-03,,
-1.271E-04,-7.202E-03,,
-1.323E-04,-7.690E-03,,
-1.335E-04,-7.812E-03,,
-1.293E-04,-6.713E-03,,
-1.367E-04,-7.202E-03,,
-1.354E-04,-7.446E-03,,
-1.264E-04,-7.324E-03,,
-1.386E-04,-7.568E-03,,
-1.354E-04,-8.056E-03,,
-1.289E-04,-7.080E-03,,
-1.328E-04,-7.690E-03,,
-1.398E-04,-7.690E-03,,
-1.293E-04,-7.934E-03,,
-1.350E-04,-7.202E-03,,
-1.252E-04,-7.568E-03,,
-1.289E-04,-6.835E-03,,
-1.315E-04,-7.446E-03,,
-1.379E-04,-7.080E-03,,
-1.347E-04,-7.202E-03,,
-1.386E-04,-8.178E-03,,
-1.335E-04,-8.056E-03,,
-1.369E-04,-8.056E-03,,
-1.242E-04,-7.446E-03,,
-1.267E-04,-7.202E-03,,
-1.271E-04,-7.568E-03,,
-1.311E-04,-7.202E-03,,
-1.335E-04,-7.568E-03,,
-1.325E-04,-7.080E-03,,
-1.345E-04,-8.422E-03,,
-1.289E-04,-6.469E-03,,
-1.320E-04,-7.812E-03,,
-1.401E-04,-7.934E-03,,
-1.276E-04,-7.446E-03,,
-1.279E-04,-8.056E-03,,
-1.223E-04,-7.568E-03,,
-1.379E-04,-7.690E-03,,
-1.215E-04,-8.178E-03,,
-1.362E-04,-8.178E-03,,
-1.215E-04,-7.446E-03,,
-1.296E-04,-7.812E-03,,
-1.342E-04,-7.080E-03,,
-1.296E-04,-7.812E-03,,
-1.259E-04,-6.713E-03,,
-1.296E-04,-6.958E-03,,
-1.291E-04,-8.056E-03,,
-1.320E-04,-6.469E-03,,
-1.333E-04,-6.835E-03,,
-1.306E-04,-7.568E-03,,
-1.276E-04,-7.690E-03,,
-1.308E-04,-7.690E-03,,
-1.303E-04,-6.958E-03,,
-1.281E-04,-7.812E-03,,
-1.298E-04,-7.568E-03,,
-1.354E-04,-7.568E-03,,
-1.184E-04,-6.591E-03,,
-1.198E-04,-7.324E-03,,
-1.308E-04,-7.202E-03,,
-1.257E-04,-7.324E-03,,
-1.225E-04,-7.080E-03,,
-1.223E-04,-7.202E-03,,
-1.259E-04,-7.324E-03,,
-1.225E-04,-7.690E-03,,
-1.245E-04,-8.300E-03,,
-1.235E-04,-7.202E-03,,
-1.149E-04,-7.690E-03,,
-1.228E-04,-7.446E-03,,
-1.296E-04,-7.080E-03,,
-1.325E-04,-7.690E-03,,
-1.323E-04,-6.835E-03,,
-1.269E-04,-7.202E-03,,
-1.340E-04,-7.080E-03,,
-1.250E-04,-7.202E-03,,
-1.223E-04,-7.202E-03,,
-1.242E-04,-7.690E-03,,
-1.293E-04,-6.958E-03,,
-1.152E-04,-7.568E-03,,
-1.374E-04,-7.324E-03,,
-1.208E-04,-7.324E-03,,
-1.166E-04,-7.812E-03,,
-1.169E-04,-6.958E-03,,
-1.252E-04,-6.713E-03,,
-1.232E-04,-7.080E-03,,
-1.123E-04,-7.446E-03,,
-1.225E-04,-8.422E-03,,
-1.154E-04,-6.958E-03,,
-1.271E-04,-7.080E-03,,
-1.237E-04,-6.713E-03,,
-1.262E-04,-7.324E-03,,
-1.184E-04,-6.713E-03,,
-1.271E-04,-7.324E-03,,
-1.142E-04,-7.446E-03,,
-1.223E-04,-7.202E-03,,
-1.230E-04,-7.080E-03,,
-1.269E-04,-7.446E-03,,
-1.186E-04,-7.568E-03,,
-1.264E-04,-7.690E-03,,
-1.191E-04,-7.080E-03,,
-1.171E-04,-7.324E-03,,
-1.225E-04,-6.591E-03,,
-1.164E-04,-7.324E-03,,
-1.103E-04,-8.056E-03,,
-1.269E-04,-7.080E-03,,
-1.179E-04,-7.202E-03,,
-1.235E-04,-6.835E-03,,
-1.215E-04,-7.446E-03,,
-1.127E-04,-6.958E-03,,
-1.303E-04,-7.568E-03,,
-1.215E-04,-6.591E-03,,
-1.171E-04,-7.568E-03,,
-1.223E-04,-6.591E-03,,
-1.171E-04,-6.347E-03,,
-1.210E-04,-7.080E-03,,
-1.235E-04,-6.835E-03,,
-1.230E-04,-7.690E-03,,
-1.176E-04,-7.812E-03,,
-1.147E-04,-7.324E-03,,
-1.181E-04,-7.080E-03,,
-1.184E-04,-6.713E-03,,
-1.157E-04,-6.713E-03,,
-1.191E-04,-6.469E-03,,
-1.147E-04,-7.568E-03,,
-1.145E-04,-7.446E-03,,
-1.271E-04,-7.568E-03,,
-1.188E-04,-7.202E-03,,
-1.213E-04,-7.568E-03,,
-1.171E-04,-7.568E-03,,
-1.228E-04,-6.958E-03,,
-1.230E-04,-7.446E-03,,
-1.267E-04,-7.812E-03,,
-1.198E-04,-6.958E-03,,
-1.264E-04,-7.568E-03,,
-1.159E-04,-7.934E-03,,
-1.284E-04,-7.812E-03,,
-1.184E-04,-7.080E-03,,
-1.250E-04,-8.178E-03,,
-1.108E-04,-7.568E-03,,
-1.166E-04,-8.544E-03,,
-1.149E-04,-7.812E-03,,
-1.215E-04,-7.812E-03,,
-1.154E-04,-7.324E-03,,
-1.201E-04,-7.080E-03,,
-1.193E-04,-7.690E-03,,
-1.206E-04,-7.568E-03,,
-1.159E-04,-8.056E-03,,
